<?xml version="1.0" encoding="utf-8"?>
<!-- Generator: Adobe Illustrator 22.0.1, SVG Export Plug-In . SVG Version: 6.00 Build 0)  -->
<svg version="1.1" id="Layer_1" xmlns="http://www.w3.org/2000/svg" xmlns:xlink="http://www.w3.org/1999/xlink" x="0px" y="0px"
	 viewBox="0 0 300 400" style="enable-background:new 0 0 300 400;" xml:space="preserve">
<style type="text/css">
	.st0{fill:#FEFEFE;}
</style>
<g>
	<g>
		<path d="M172.5,23.6c2.6,5.4,3.9,10.7,5.4,16c2.8,10.2,7.7,19.6,11.5,29.4c1.2,3,0.9,4.4-1.2,6.5c-5.7,5.6-8.4,12.7-9.7,20.4
			c-0.5,3-2.2,5.8-1.7,9c0.2,1.1-0.2,2,1.6,2.3c3.9,0.7,5.5,3.3,5.4,7.3c-0.2,5.6,0,5.6,5.6,5.6c12.1,0,23.2-3,33.3-9.8
			c0.9-0.6,1.9-2,3.3-1.1c1.4,0.8,1.2,2.3,1,3.5c-0.6,4.1-2.8,7.5-6.3,10.8c6.8,0.3,13-0.3,19.2,0.9c5.3,1,10.6,2.3,15.6,4.4
			c1.2,0.5,2.6,1.4,2.5,2.6c-0.1,1.2-1.7,1.4-2.9,1.8c-10.9,3.1-22.1,4.7-33.9,4.3c1.8,3.5,4.6,6.4,4.1,10.6c-0.1,1.2,0,2.4-1.1,3
			c-1.4,0.8-2.3-0.3-3.3-1.1c-10.5-7.8-22.5-10.3-35.3-9.9c-1.7,0-1.6,0.9-1.9,2.1c-4.8,21-2.6,42.4-2.3,63.6
			c0.3,19.4,1.4,38.9,2.7,58.2c0.8,12.6,3.6,25.2,7.5,37.3c2.4,7.3,2.8,13.9-1.4,21.1c-6.3,10.7-11.4,22-17.1,33
			c-0.4,0.7-0.3,2-1.7,2.2c-1.5,0.2-1.5-1-2-1.8c-6.6-12.4-13.2-24.8-20-37.2c-1.4-2.5-1.2-4.5-0.1-7.1c3.1-6.7,3.6-14.2,5.6-21.3
			c2.4-8.5,1.9-17.6,4.3-26.1c0.3-0.9,0.1-2,0.1-3c-0.6-11.8,0.1-23.6,1.1-35.3c2-23.7,1.1-47.4,1.5-71.1c0-2.1,0.2-4.1-1.8-5.9
			c-1.8-1.6-0.7-4.1-0.7-6.2c0-2-0.4-2.8-2.6-2.7c-13.9,0.2-27.2,6-31.6,21c-3.9,13-1,25.3,8.1,35.8c0.7,0.8,1.6,1.3,2.1,2.2
			c0.9,1.8,1.4,3.3-1.8,3.5c-10.9,0.8-20.8-2.5-30.6-6.5c-14.6-5.9-25.2-16.6-34-29.1c-4.7-6.7-7.6-14.5-8.5-22.9
			c-0.4-3.8-1.9-7.3-1.8-11.2c0.3-16.6,5.8-31.2,15.8-44.3C83.9,76.4,96,68,110.7,63.7c7-2,14.2-3.6,21.6-3.2c0.9,0,2.1-0.6,2.6,0.7
			c0.5,1.3-0.4,2-1.4,2.8c-13.1,11.1-17.8,24.4-12.1,39.8c3.6,9.8,12.2,15.2,22.8,16.4c4.2,0.5,8.1,3,12.8,1.2
			c1.9-0.8,2.3-1.3,2.3-3c-0.1-4.7-0.8-9.5,5.5-11.4c1.4-0.4,1-3.9,0.4-5.6c-2.6-7.6-3.5-16-9.3-22c-4.5-4.7-3.3-7.8-0.3-12.9
			c6.6-11.3,11.1-23.6,14.1-36.4C170.3,27.9,170.7,25.7,172.5,23.6z"/>
		<path class="st0" d="M127.5,64.1c-5.3,6.1-9.5,12.3-10.7,20.3c-1.5,10.2-1.2,19.5,6.3,28.1c6.8,7.7,15.2,10.2,24.7,11.3
			c3.3,0.4,6.6,1.6,10,0c1.3-0.6,1.6,0.5,1.6,1.7c0,4,0,8-0.4,12c-1.2-1.8-3.1-3.1-3-5.4c0.1-2.2,2-4,1.4-7.4
			c-2.4,4.6-3.2,8.4-0.7,13.3c-4.1-3.4-4.7-6.7-3.4-10.7c-4.2,3.4-2,6.8-0.2,10.1c-4.5,0.2-4.5,0.2-5.2-10.4c-0.6,2.1-1.3,3.5-1.3,5
			c-0.1,1.6-0.6,3.4,0.6,5c0.5,0.7,0.1,1.3-0.8,1.4c-0.7,0.1-1.3,0-1.6-1c-0.6-2.1-1.1-4.1-0.8-6.3c0.1-1-0.5-1.9-1.2-2
			c-0.7-0.1-1.4,0.8-1.3,1.8c0.1,1.6-0.4,3.6,0.4,4.6c2.7,3.7,0.5,4.2-2.4,5.6c-15.6,7.5-21.2,22-17.8,38.3
			c1.6,7.4,4.4,14.4,10,19.8c-26.3,1.6-60.3-20.9-67.2-53.5C55.3,104,86.3,68.5,127.5,64.1z"/>
		<path class="st0" d="M174.9,233.2c-0.6,0.8-1.2,1.3-2.2,1.4c-1.9,0.1-1.3,1.2-0.5,1.9c0.5,0.4,1.3,0.4,1.9,0.7
			c0.3,0.1,0.5,0.5,0.8,0.8c-4.7,1.7,1.2,5.5-1.1,6.7c-2.3,1.2-1.4,1.7-0.3,2.5c1.9,1.3,2.8,2.3-0.3,2.9c-0.9,0.2-1.7,0-1.7,1.3
			c0,1.7,1.2,1.3,2.1,1.3c1.2,0,2.1,0.6,2.1,1.7c0.1,1.3-1.3,0.6-1.9,1c-1.1,0.8-2.8,1.5,0.1,2.6c2.3,0.9,1.3,3.4-2.1,5.3
			c2.7,1.7,2.7,2,0.6,3.7c-1.1,0.9-0.5,1.6,0.2,1.9c1,0.4,2.1,0.4,3.1,0.5c0.2,2.4-2.5,2-3.1,3.6c1,1.4,3.8-0.9,3.9,1.6
			c0.1,2.6-3.5,1-4.3,3.3c1,1.4,2.5,0.5,3.8,0.7c0.8,0.1,1.4,0.1,1.4,1.1c0.1,1.1-0.4,1.6-1.5,1.5c-1.8-0.2-3.2,0.5-4.9,1.7
			c1.5,1.5,3.1,0.7,4.5,0.9c0.8,0.1,1.8-0.2,1.9,1.1c0.1,1.1-0.4,1.4-1.5,1.5c-1.3,0.2-2.5,0.9-4.3,1.5c2.7,1.8,5.3,0.4,7.5,1.3
			c-0.4,4.8-7.2-0.5-7.3,4.9c2.2,0,4.5,0,6.7,0c1,0,1.6,0.3,1.5,1.5c-0.1,1-0.6,1.2-1.4,1.1c-2.3-0.2-4.3,0.5-6.9,1.7
			c2.2,1.4,4.2,0.6,6,1c1.1,0.2,3-0.9,3.1,1.1c0.1,1.9-1.3,2.9-3.3,3.3c-2,0.3-4.4-1.2-6.1,1.5c2.9,0,5.7,0.5,8.2-0.2
			c1.7-0.5,2.5-0.3,2.9,1.1c0.7,2-1.3,1.6-2.2,2.1c-2.8,1.6-6.1-0.3-8.9,1.6c4.6,1.2,9.3,1.9,13.8-0.2c1.8-0.8,0.8-2.3,0.3-3.6
			c-4.2-10.4-4.9-21.5-6.3-32.4c-1.8-14-2.1-28.1-2.8-42.2c-1.4-25.5-0.2-51-0.7-76.5c0-0.7-0.1-1.4,1.7-2.7
			c0,27.8-0.2,54.9,1.6,81.9c1.8,26.6,2.8,53.4,12.2,79c-13.2,0-25.9,0-38.2,0c1.5-7.5,2.5-15.1,4.6-22.5c2.4-8.6,1.8-17.6,4.1-26.2
			c1.1-4.1,0.5-8.5,0.8-12.8c0.4-5.8,0.8-11.7,1.2-17.5c1.9-26.8,1.7-53.7,1.6-80.6c0-3.8,2.5-2.2,4.1-2.4c2-0.2,3.4,0.2,1.2,2.3
			c3,1.4-0.8,5,2.1,6.4c0.2,0.1,0.3,0.4,0.4,0.7c-3.3,2,1.1,4.9-0.8,7.2c-0.8,0.9-0.5,1.4,0.6,2c0.9,0.5,2.1,1.6,0,2.3
			c-0.7,0.2-0.8,1.2-0.6,1.4c2.7,1.8-2.1,5.1,1.5,6.8c0.5,0.2,0.6,1.6-0.5,2.1c-1.7,0.9-1.6,1.6,0,2.7c1.1,0.7,1.2,1.7-0.1,2.6
			c-1.3,0.8-1.3,1.9-0.1,2.5c1.7,0.8,0.7,1.4,0.1,2.2c-0.9,1.2-3.9,2.7,0.4,3.3c0.6,0.1,0.7,1.6,0.2,1.9c-2.7,1.4-1.5,2.8-0.1,4.2
			c0.5,0.5,0.4,1.2-0.3,1.4c-3.5,1.1-2.1,2,0.2,2.7c0.8,0.2,1.2,0.5,1.2,1.3c0.1,1.3-0.8,1.3-1.7,1.3c-0.6,0-1.6-0.3-1.7,0.7
			c-0.1,1,0.8,1.4,1.5,1.8c2.2,1.2,2.2,1.3,0.3,2.6c-1.5,1-1.5,1.1,0.3,2.8c1.2,1.2,2.5,2.3-0.6,2.4c-0.9,0-1.7,0.1-1.7,1.3
			c0,1.3,0.8,1.3,1.7,1.3c0.8,0,1.7-0.1,1.8,1.2c0,1.2-0.6,1.3-1.6,1.4c-0.6,0.1-1.7,0.8-1.6,1.1c0.1,0.8,0.8,1.4,1.8,1.4
			c1.5,0,2,1.1,0.8,1.7C170.2,230.7,173.5,231.9,174.9,233.2z"/>
		<path class="st0" d="M155.7,73.3c8.2-13,13.1-26.9,16.7-42.5c1.6,5.6,2.9,10.2,4.3,14.9c2.5,8.3,5.9,16.1,9.5,24
			c0.4,0.9,1.6,1.9,0.1,3.3c-7.2,6.4-9.1,15.4-11.2,24.3c-0.9,3.9-1.4,8-2.3,13.1c-1.4-22.1,0.9-43.3-0.7-64.3
			c-1.4,21.1-2.4,42.2-2.5,63.4C167.6,96.2,164.5,83.4,155.7,73.3z"/>
		<path class="st0" d="M250.1,130.9c-12.6,3.8-25.7,3.1-38.9,3.8c3.9,2.4,8.3,4,10,8.7c0.4,1.2,0.5,2.2,0.4,3.5
			c-9-6.9-19.2-9.4-30.2-9.4c-1.7,0-3.5,0.1-5.2,0c-0.9-0.1-2.5,0.8-2.5-1.3c0-1.6,1.3-1,2.1-1.3c3.4-1.5,7-0.4,10.5-1.8
			c-4.2,0-8.4,0-12.6,0c0-0.6,0-1.2,0-1.8c9.4,0,18.8,0,28.2,0c0-0.6,0-1.1-0.1-1.7c-9.3,0-18.7,0-28.2,0c0.5-2.5,2.4-0.9,3.1-2
			c-0.7-0.9-2.3-0.4-3-1.7c-0.4-0.8-1.1-1.3-0.8-2.3c0.3-1.2,1.3-0.8,2.1-0.8c2.3-0.1,4.6-0.1,6.9,0c10.5,0.3,20.2-2.1,28.9-8.2
			c0.5-0.3,1-0.7,1.5-0.3c0.6,0.5,0.5,1.3,0.2,2c-1.3,2.6-3.2,4.5-5.7,6c-1.9,1.1-5.5,1.9-5,3.8c0.6,2.2,3.9,0.9,6.1,0.9
			c8.4,0.2,16.9-0.2,25.3,0.9C245.6,128.3,247.6,130,250.1,130.9z"/>
		<path class="st0" d="M189.6,316c-5.9,12.3-11.9,24.3-18.6,36.2c-6.5-12-12.9-23.9-19.5-36.2C164.4,316,176.8,316,189.6,316z"/>
		<path class="st0" d="M180.2,118.8c0,8.9-0.1,17.5,0.1,26.2c0.1,2.9-1.3,3.7-3.7,3.8c-0.1,0-0.3,0-0.4,0
			c-15.7,0-13.1,0.8-13.2-12.5c0-5.8,0-11.5,0-17.5C168.6,120.9,174.2,120.9,180.2,118.8z"/>
		<path class="st0" d="M171.3,117.8c-2.6-0.9-5.3-0.8-7.5-2.7c-0.8-0.7-2.2-1-1.6-2.4c0.6-1.2,0.8-2.8,2.7-2.9
			c1.4,0,2.3,0.3,3.1,1.7c2.9,4.9,3.4,5,5.9,0.2c1.1-2.1,2.7-2,4.3-1.8c1.5,0.2,2.7,1.3,2.7,2.9c0,1.6-0.9,2.7-2.4,3.5
			C176.2,117.5,173.5,116.5,171.3,117.8z"/>
		<path d="M76.8,98.8c-11.4,19.5-10.4,40.1-1.5,59.3c9,19.4,25.6,31.2,47.6,33.9c-0.8,2.1-2.2,1.9-3.5,1.8
			c-15.6-1.8-28.2-10.3-37.8-21.6c-9.9-11.5-15.8-25.8-14.8-41.6C67.6,119.5,69,108.1,76.8,98.8z"/>
		<path d="M120.1,185.8c-5.3,2.7-26.8-8.6-33.3-16.3c-16.5-19.4-15.9-45.8-9.6-53.3c-6.4,16-1.9,31,5.7,44.6
			C90.8,174.7,105.7,180.2,120.1,185.8z"/>
		<path d="M81.7,123.2c-1.5,11.9,1.2,22.5,7.8,32.5c5.1,7.9,11.8,13.7,19.8,18.2c1.6,0.9,3.3,0.8,4.9,0.8c1.1,0,2.4,0.3,2.4,1.2
			c0,1.3-1.4,1.3-2.6,1.5c-3.7,0.7-6.6-1.7-9.2-3.3c-11.1-6.8-18.8-16.7-22.9-29c-1.2-3.7-2.7-7.9-1.4-12.1c0.2-0.6,0.2-1.7-0.2-2.1
			C76.9,127.5,80.7,125.6,81.7,123.2z"/>
		<path d="M104.9,164.3c-3.2,0.5-4.6-2.5-6.1-4.1c-7.3-7.6-11.4-16.8-11.2-27.6c0-0.7-0.2-1.4,1.1-2.3c1.4,2.9,0.7,6,1.4,8.8
			c1.7,6.6,3.8,12.8,8.7,17.8c2.3,2.3,5.2,4.1,6.1,7.5L104.9,164.3z"/>
		<path d="M97.6,136.8c2.8,11.8,8.8,20.6,21.7,24.2C109.1,164.1,96.4,147.9,97.6,136.8z"/>
		<path d="M119.3,154.9c-5.6,1.2-12.6-7.2-12-14C109.7,146.7,113,151.8,119.3,154.9z"/>
		<path d="M104.7,164.5c4.7,0,7.4,3.8,11.3,5.3c-4.4-0.5-8.5-1.6-11.2-5.5C104.9,164.3,104.7,164.5,104.7,164.5z"/>
		<path d="M118.1,141.1c2.1,3,3.6,5.7,3,9.2C118.7,147.7,116.9,145,118.1,141.1z"/>
		<path d="M85.4,89.2c-2.7,1.3-2.7,4.4-6.5,5.3C81.2,92.1,80.9,88.7,85.4,89.2z"/>
		<path d="M79.1,111.6c-1.3-0.3-1.3-1.2-1-1.7c0.7-1.3,0.7-3.1,2.5-3.5c0.8-0.1,1,0.7,0.8,1.1C80.7,109,79.8,110.3,79.1,111.6z"/>
		<path d="M85.3,112.2c0.2,0.6,0.5,1.3,0.4,1.3c-1.6,0.9,0.4,3.6-2,4c-0.5,0.1-1.5,0-1.3-0.6C83,115.3,83.3,113.4,85.3,112.2z"/>
		<path d="M138.5,139c-2.6-2-2.8-4-2.3-6.6C137.5,134.4,138.2,136.2,138.5,139z"/>
		<path d="M125.4,140.3c1,1.5,2,2.9,3.1,4.6C125.3,144.7,125,142.7,125.4,140.3z"/>
		<path d="M89.9,120.4c0.1,1.2,0.8,2.4-0.4,3.3c-0.1,0.1-0.7,0-0.7-0.2C88,122.2,88.3,121.3,89.9,120.4z"/>
		<path d="M96.9,130.6c-0.2-0.2-0.6-0.4-0.7-0.7c-0.2-0.8,0.4-1.3,1.1-1.6c0.6-0.3,0.5,0.4,0.6,0.7C97.9,129.7,98,130.4,96.9,130.6z
			"/>
		<path d="M132.3,139.5c-2.3-0.8-1.3-2.1-1.1-3.3C131.6,137.2,131.9,138.2,132.3,139.5z"/>
		<ellipse cx="191.4" cy="125.9" rx="4.4" ry="0.3"/>
		<path d="M196.1,127.8c-1.7,0-3.3,0-5,0c0-0.1,0-0.3,0-0.4c1.6,0,3.3,0,4.9,0C196.1,127.6,196.1,127.7,196.1,127.8z"/>
		<path d="M169.9,323c2.4,0,4.8,0,8.5,0c-4.3-2-7.8-2.4-11.1-3.5c2.5-1.4,5.2-1.3,7.8-0.5c2.1,0.6,3.9,0.7,5.4-1.1
			c0.8-1,1.9-1.8,2.9-0.8c1,1-0.1,1.9-0.7,2.9c-2.8,5.3-7.9,9.1-9.5,15.2c-0.2,0.9-1,1.9-2.3,1.2c-0.8-0.4-0.7-1-0.3-2
			c0.5-1.3-1.5-3.5,1.4-4.1c-0.3-0.2-0.6-0.3-0.8-0.5c-1.3-1.1-1.3-1,0.3-1.7c1.4-0.6,2.7-1.3,4.2-2
			C174.1,323.9,171.4,325.3,169.9,323z"/>
		<path d="M170.5,145.5c1.3-1.8,3.4-1.3,4.5-2.4c2.9-2.9-2.3-1.3-1.6-3.3c0.8-0.4,1.8-1,2.9-1.6c-0.6-1.4-7.3-0.8-1.5-4.4
			c-3.2-1.1,3-5.2-1.9-5.9c-0.9-0.1-0.4-1.2,0.2-1.6c1.3-0.9,2.3-1.6-0.3-1.8c-0.1,0-0.3-1.8-0.1-1.9c1.2-0.6,2.6-1.1,3.9-1.3
			c1.1-0.1,1.9,0.7,1.9,1.8c0.1,1.9,0,3.7,0,5.6c0,4.3,0,8.6,0,12.9C178.4,147.8,176.6,148.8,170.5,145.5z"/>
	</g>
</g>
</svg>
