<?xml version="1.0" encoding="utf-8"?>
<!-- Generator: Adobe Illustrator 22.0.1, SVG Export Plug-In . SVG Version: 6.00 Build 0)  -->
<svg version="1.1" id="Layer_1" xmlns="http://www.w3.org/2000/svg" xmlns:xlink="http://www.w3.org/1999/xlink" x="0px" y="0px"
	 viewBox="0 0 300 400" style="enable-background:new 0 0 300 400;" xml:space="preserve">
<style type="text/css">
	.st0{fill:#FEFEFE;}
</style>
<g>
	<g>
		<path d="M105.1,129c-3.2-4.4-7.5-4.7-11.4-5.9c-1.2-0.4-2.5-0.8-3.7-1c-2.3-0.3-4.3-1.6-3.8-3.6c0.6-2.4,3.3-3.2,5.8-2.5
			c5.5,1.6,10.9,3.4,17,5.3c-3.3-5.8-8-7.8-13.5-8.4c-8.9-0.9-17.4-3.1-25.1-7.9c-1.7-1.1-3.9-1.8-3.3-4.2c0.6-2.3,2.5-3.2,5-3
			c2.7,0.2,5.4,0.3,8,0c4.4-0.5,8.4-1.7,10.7-6.3c2.9-5.7,7.9-9,13.9-10.6c10-2.7,20-4.2,30.4-2.2c6.6,1.3,12.4-2.8,18.7-4.3
			c4.1-1,8.3-0.7,12.3-0.3c1.4,0.1,6,0.6,2.6,4.6c-1.1,1.3,0.4,1.7,1.4,2.1c4.7,1.9,9.5,3.7,14.2,5.8c3.9,1.8,3.9,2,2.4,6.2
			c-0.5,1.4,0.6,1.7,1.1,2.1c7.2,5.3,9.2,13.6,11.8,21.3c1.6,4.8-3.6,1-4.9,3.3c1.7,4.9,3.5,10.4,5.6,15.9c0.6,1.7,1.9,3.1-1.1,3.4
			c-1.5,0.2-1.3,1.4-1.2,2.2c1.2,9.6-3.8,17.5-7.5,25.7c-0.2,0.4-0.5,0.9-0.6,1.4c-0.3,8.4-7.5,12.5-11.3,18.6
			c-1.4,2.3-3,4.6-2.7,7.7c0.3,2.8-1.4,4.2-4.2,4.4c-5.7,0.4-9.1,3.9-10.7,9c-1.1,3.6-2.9,5-6.7,6.4c-4.9,1.7-10.7,4.1-11.5,11.1
			c-0.3,2.9-1.8,5.2-5.7,5.6c-4.2,0.4-6.5,4.1-8.3,7.6c-2.3,4.4-4.8,8.5-8.7,11.6c-7.1,5.7-6.6,13.5-5.8,21.2
			c0.8,9.2,7.4,13.2,15.2,16.4c12.5,5.1,23.7,4,33.6-5.5c7-6.7,8.4-16.8,3.7-26.1c-3.4-6.7-5.5-13.7-5.8-21.3
			c-0.3-7.4,2.7-13.5,6.8-19.2c1.5-2.1,3.4-3.9,3.2-6.8c-0.2-2.2,1.3-3.7,3.1-3.8c1.9-0.1,2.6,2.3,2.7,3.6c0.3,4.1,1,8.5-0.1,12.4
			c-1.2,4.2-0.4,7.1,2.6,9.5c3.1,2.5,3.4,5,0.6,7.8c-1,1-1,1.7-0.2,2.9c3.5,5.1,7.4,9.6,14.3,9.6c2.2,0,4.5-0.5,3.9,3.1
			c-0.3,1.8,0.8,2.6,2.5,3.1c4.3,1.3,8.2,4.5,13.2,1.1c2.2-1.5,4.5,0.3,6.4,2.2c3.8,4,10.2,2.9,13.1-2.1c1.9-3.2,2.7-7.1,6.2-9.1
			c1.2-0.7,2.6-2.2,4.5-0.9c1.7,1.3,1.3,3.1,1,4.6c-2.6,16.3-19,30.2-36.1,30.2c-9.8,0-18.1,5.2-25.3,11.8
			c-10.4,9.6-22.5,15.2-36.6,17.2c-14.2,2-27.7,0-40.1-6.4C95.3,299.8,87,290,82,277.7c-1.2-3-2.6-5.5-5.2-7.7
			c-3.8-3.2-5.1-8.1-4.8-13.2c0.2-2.4,0.2-4-3.2-3.9c-2.9,0.1-3.6-1.7-2-4.3c1.2-2,2-3.7,0.5-6.7c-1.9-3.8,0.9-8.1,2.3-12.1
			c0.4-1.3,1.8-2.4-0.6-3.6c-2.1-1-0.9-2.9,0-4.2c1.2-1.7,2.7-3.3,3.9-5c1.6-2.2,3.7-4.1-0.5-6.4c-2.9-1.6,0.2-6.7,5-8.7
			c4.7-2,9.5-2.3,14.4-1.9c2.5,0.2,4.4-0.4,6.1-2.3c8.1-8.7,17.6-15.7,26.4-23.6c4.7-4.2,9-8.6,10.9-15.2c2.6-9.3-1.7-14.8-9-17.7
			c-7-2.8-14.7-4-22.3-4c-7.1,0-13.9-0.7-20.4-3.9c-1.5-0.7-2.9-1.3-2.5-3.1c0.4-1.8,1.7-2.8,3.8-3.2c4.5-0.8,8.2,2.1,12.5,2.1
			C99.7,129,102,129,105.1,129z"/>
		<path class="st0" d="M132.6,170.4c1-1.8,1.8-3.8,3-5.5c5.8-7.8,5.3-20.2-6.2-25.3c-1.8-0.8-4.1-1.1-5.2-3.6c2.6-0.3,4.9-0.6,7.3-1
			c4.5-0.8,4.1-3.6,3.7-6.6c-0.3-2.2-1.3-4.3-1.3-6.7c0.2-5.3-2-7-8.2-6.5c3.5,2,8,2.9,6,8.2c-1.3,0.2-1.6-2.1-3.4-1.4
			c-0.1,0.3-0.3,0.9-0.2,1.2c1.3,1.8,2.7,3.7,4.2,5.4c1.2,1.3,0,2-0.3,3c-0.4,1.5-1.1,0.9-2.1,0.8c-1.9-0.2-3.9,1.3-5.3-1.3
			c-0.4-0.7-1.3-0.3-1.6,0.8c-0.9,3.3-4.9,4.5-8.8,2.6c1.9-1.8,4.5-2.7,5.7-5.3c4.2-8.4-0.4-15.5-9.7-16.6
			c-12.8-1.4-25.8-2.4-37.2-9.4c-1-0.6-3.1-0.6-2.5-2.4c0.4-1.5,2.2-1,3.5-1.2c7.1-1,13.5,1.5,19.7,4.4c2.7,1.2,5.1,2,8.4,1.3
			c-4.2-1.8-8.2-3.4-12-5.3c-0.4-0.2-2,0.1-1.5-1.1c0.3-0.9,1.1-1.6,2.4-0.9c4,2.1,7.9,4.4,12.5,4.9c0.4,0,0.7,1,0.9,1.5
			c3.2,7.2,9.6,8.7,16.1,7c4.1-1.1,7.4-3.6,11.5,1.8c-0.7-4.9-5-5.2-5.5-9c-0.2-1.4-2.3,1.2-2.7,2.5c-1.4,4.3-4.9,3-7.8,3
			c-3,0-4.7-2-5.6-4.6c-0.4-1-0.7-2.5,0.4-3.2c1.6-1.1,3.5-1.8,5.4-2.7c0.1,0,0.5,0.4,0.6,0.7c0.4,1.2-0.7,0.6-1.1,0.9
			c-1.7,1.4-3.3,3.1-2.1,5.5c0.8,1.7,2.3,2.7,4.5,2.5c2.5-0.2,3.9-1.4,4.3-3.9c0-0.2-0.1-0.4,0-0.5c2.3-3.8,6.2-1.9,8.7-1.3
			c2.7,0.6,7.3-0.3,8,4.3c0.1,0.9-1.6,2.1,0.6,2.3c1.6,0.2,2.5-0.7,2.7-2.3c0.5-3.2-2.1-4.1-4.1-5.4c-3.8-2.2-8.5-0.2-12.3-2.4
			c-6-3.4-11.6-2.9-17.9-0.2c-3.5,1.4-8,0.6-11.9-1.4c-4.7-2.4-5.1-4.9-1.2-8.5c5.4-4.9,11.9-8.1,18.9-8.7
			c14.1-1.2,27.8,0.5,40.2,8.7c13.7,9,22.2,21.7,25.8,37c3.1,12.8,1.6,25.9-4.1,38.6c-6.5,14.5-15.2,27-26.4,38.2
			c-8.8,8.7-17.5,17.5-25.6,26.7c-6.2,7-10.6,15.4-14.3,23.9c-0.4,0.9-0.2,2.4-1.6,1.5c-1.6-1.1-2.7-0.6-3.1,0.7
			c-0.2,0.5,1.3,2.1,2.2,2.3c3.1,0.8,0.7,2.7,1.2,3.9c-2.1,0.9-0.9-3.3-3-1.8c-2.1,1.5,0.2,2.4,0.9,3.5c0.7,1,2.3,1.5,2.2,3.2
			c-1.4,0.8-1.5-1.6-3.2-0.8c2.8,3.3,3.1,7.6,5.9,11.5c6.7,9.5,16.5,11.3,26.2,14.1c14.5,4.1,33-6.3,35.5-21.9
			c0.9-6.1-0.8-10.7-3-15.6c-3.9-8.8-6.7-17.8-4.4-27.7c1-4.2,3.7-7.5,5.8-11c1.5-2.5,2.5-4.9,2.4-8c2.7,1.7,2.2,3.3,1,5.5
			c-2.8,5-6.3,9.8-7.5,15.5c-1,4.6,0.3,9.1,2.2,13.6c-1.8-10,0.6-18.9,6-27.3c0.3,1.9,0.4,3.5-0.5,5.3c-2.3,4.5-0.6,8.4,2.6,11.8
			c0.7,0.7,2.4,1.2,1.6,2.6c-4.7,8.5-2.4,17.1-0.4,25.7c1.6,6.8,0.2,13-3.1,19.6c1.8-0.7,3.3-0.6,3.7-2.5c3.5-1.7,5-5,6.9-8
			c2-3.1,3.4-6.4,6.1-9c-5.2,5-6.7,12.8-12.9,17.1c-2.5-2.3,1.1-3,1.4-4.7c1.3-6.1,0.8-11.9-1.1-17.7c-1.1-3.2-1.6-6.6-0.8-10.6
			c4.4,4.8,8.6,9.2,15.5,8.3c0.6-0.1,1.5,0.7,1.9,1.4c3.7,6.5,10.9,9.4,17.9,6.5c2.5-1,3.3,1,5.1,1.7c-8.7-0.5-13.4,5.4-18.8,11
			c2.5,0.7,3-1.6,4.3-2.4c1.3-0.9,2.6-2,3.9-2.9c4.1-2.8,8-5.2,13.5-2.6c4.1,1.9,12.2-2.4,14.2-6.5c1.5-3.2,2.7-6.6,6.7-8.5
			c-2.8,13.7-10.5,23-23,27.9c-6.6,2.6-14.2,0.9-21.1,3.2c-3.1,1.1-5.8,2.6-8.6,4.2c-5.8,3.3-11.7,6.6-17.5,9.9
			c-0.4,0.2-1.6-0.1-0.7,0.9c0.3,0.4,1.2,0.3,2.2,0.5c-2.6,1.6-5.5-1.5-7.4,1.4c1.3,0.1,2.7,0.2,5.1,0.5c-4.6,3.3-9.1,1.1-13.1,2
			c0.4,1.5,1.6,0.7,2.3,0.7c1.6,0-0.2,2.6,1.7,2.2c0.1,1.5-1.3,0.4-1.6,0.9c-1.5,2.4-4.6,1.3-6.6,2.8c-0.3,0.2-3.5,1.8-2.5-1.8
			c0.4-1.4-1.2-1.1-2-0.3c-1,1-1.8,2.2-2.8,3.5c-1.1-2.3,1.2-3.3,1.6-5c-1.8,0-3.5,0-5.6,0c2.5,1.6,0,3.5,0.8,5.3
			c0.2,0.5-1,0.6-1.6,0.6c-1.7-0.1-0.5-1-0.3-1.5c1-4.1-2.9-3.3-4.7-4.2c-1.2-0.7-1.4,1.2-1.1,1.9c0.7,1.3,1.8,2.3,2.7,3.5
			c-1.4,0.8-2.6,0.4-3.5-0.8c-0.2-0.3-0.3-0.6-0.3-0.9c-0.2-3.1-2.7-3.5-4.8-3.8c-1.8-0.2-1.7,1.3,0.6,2.8c0.7,0.4,1.4,0.6,1.8,1.4
			c-4.3,0.9-4.3,0.9-10.2-6.1c-1.3,1.9,0.5,3.6,0.5,5.7c-5.3-0.4-3-8.3-8.6-7.8c-1.5,2.2,1.2,3.3,2.2,5.5c-3.2,0-5.6-1.1-7.1-3
			c-1.5-2,2-2.6,2.2-4.3c-2.1-1.1-4.7-3.2-4.4,1.8c0.1,1.4-1,1.8-2.1,0.8c-8.5-7.6-16.5-15.1-20-27c-2-6.6-2.8-13.2-2.9-19.6
			c-0.5-19.8,6.1-37.8,17.3-53.9c5.4-7.8,13.7-13.3,21.2-19.2C124.9,177.8,128.1,173.3,132.6,170.4c0.8-0.1,1.4,0,2.1,0.1
			C133.9,170.4,133.3,170.3,132.6,170.4z"/>
		<path class="st0" d="M179.4,116.2c2.9,1.1,5.5,2.1,8.5,2c2-0.1,3.3,1.7,4.1,3.6c1.9,5,3.8,10,6.1,16c-4.1-3-7.6-5.4-12.4-6.9
			c11.1,10.2,12,14.4,5.9,26c-1.2-2-0.9-5-4.7-5.9c3,5.4,4.4,10.3,0.6,15.4c-0.9,1.2-0.4,3.5-0.5,5.3c0,1.2,0.1,2.7-1.2,3
			c-1.8,0.5-1.8-1.5-2.3-2.5c-0.8-1.7-1.3-3.6-1.9-5.4c-1.5,2.4-2.1,4.3,0.1,7.3c2.3,3.1-1.1,6.3-3,8.6c-2.9,3.6-6.2,6.8-5.8,11.9
			c0.1,0.9-0.1,1.5-1.3,1.7c-7.7,0.9-12,5.5-14.1,12.6c-0.2,0.7-0.1,2.6-2,2.2c-0.4-2.6,2.4-4.9,1-7.7c-2.6,1.6-1.6,5-3.2,6.7
			c-2.4,2.6-5.3,4.9-8.2,7c-1.1,0.8-2.8,1.5-2.9,2.5c-1.2,8-10.1,8.9-13.5,14.5c-4.8,8.1-12.4,14.1-16,22.9
			c-1.1,2.8-1.5,5.8-2.3,9.1c-2.6-8.1,2.4-13.9,5.6-19.9c6.8-12.9,16.4-23.7,27-33.4c10.5-9.6,19.8-20,27.6-31.8
			c8.8-13.4,14.4-27.9,13.2-44.2C183.3,129.7,183.4,122.5,179.4,116.2z"/>
		<path class="st0" d="M75.8,250.4c1.5-0.2,1.3-1.8,3-2.1c0.6,6.5-0.7,13,1.1,19.3c-3.7-2.5-5.1-6.1-4.8-10.1
			c0.3-4.5-0.4-7.6-6.2-6.6c1.1-4.1,4.6-6.1,6.2-9.4c-1.2-0.7-2-0.6-3-0.2c-3.2,1.2-3.6-0.8-2.8-3c1.1-3.2,2.4-6.3,4.1-9.2
			c2.3-3.9,2.5-3.8-2.4-4.6c0.2-2.5,2.3-4.3,3.6-5.4c5.1-4.2,3.2-7.3-0.6-10.6c5.4-6.8,12.8-6.4,20.6-6.6
			c-3.3,9.8-9.8,16.7-18.8,21.4c3.8-0.6,6.4-3.2,9.9-3.9c-0.3,6.7-5.7,10.3-9.6,14.9c-1.6,1.9-2.7,3.8,0.6,6
			c-0.1-3.9,1.3-6.7,4.3-9.8C80.7,238.1,80.8,244.8,75.8,250.4z"/>
		<path class="st0" d="M164.7,94.3c3.3-0.9,3.8,4,6.9,2.3c-0.4-1.1-2.1-0.7-2.2-2.4c2-0.4,4-1.1,6.2-1.3c9.3-1,12.2,6.6,16.5,12.4
			c2.4,3.3,2.5,7.6,4.9,11.4c-6.5,0.8-12-1.5-17.6-3.1c-0.8-0.2-1.7-1.2-2.1-2C174.5,105,170.6,99.2,164.7,94.3z"/>
		<path class="st0" d="M154.2,79.2c2.5-0.1,5-0.2,7.4-0.4c-0.3-2.8-3.1-1.1-4.5-2.7c2.3,0,4.4-0.2,6.5,0.1c0.4,0.1,2.1,0.2,1.9,1.4
			c-1.1,5.8,3.9,5.7,7,7.2c4,1.9,8.5,2.5,13.4,6c-6.7,0-11.9,0.3-17.2,1c-3.6,0.5-7,0-9.8-2.9c-4.3-4.3-10.3-5.7-15.9-8.5
			c3.3-1.1,6.3-2,9.1-3.2c2.6-1.1,1.5,1.3,2.3,2c-0.3,0.2-0.7-0.3-1,0.1c-0.1,0.1,0.1,0.1,0.4-0.1C154.4,79,153.6,79.5,154.2,79.2z"
			/>
		<path class="st0" d="M111.5,114.9c4.3,1,9.2,6.4,8.3,9.1c-1.1,3.3-1.6,6.8-6.7,8.3c-9.8,2.9-18.6,1.8-27.6-1.9
			c5.9-0.5,11.5,2.2,17.5,1.8c3.9-0.3,7.4-1.5,10.7-2.7C119.9,127.2,119,120.1,111.5,114.9z"/>
		<path class="st0" d="M90.4,118c7.7,2.5,15.5,5,23.2,7.6c-8.7,0.7-15.5-5.3-23.9-5.9C90,119.2,90.2,118.6,90.4,118z"/>
		<path d="M154.1,149.1c3.3,2.6,3.8,6.2,3.8,9.8c0,3.8,1.4,6.7,4.9,9.3c-2.5-6.3-3.8-12,4.3-13.5c-5.5-11.3-15.7-18.2-25.1-26.1
			c9.3,5.9,19.5,10.9,24.2,22.8c1.4-4,4.1-5,7.4-4.8c-11-1-14.7-12.3-24.8-15.3c3.3-2.5,3.8,1.7,6.5-0.1c-3.5-3.7-8.5-4.8-12.3-8.1
			c10.3,0.1,13.8,8.7,19.5,15.5c-0.6-4.4-4-11.2-8-16.1c7.2,3.3,10.3,8.7,11.2,14.8c0.7,4.9,3.1,6.4,7.2,6.7c0.5,0,1,0,1.5,0
			c1.7,0.1,3.2,1.5,3.1,2.5c-0.1,1-1.5,2.5-3.3,2.5c-3.6-0.1-7.4-0.4-3.5,5c0.9,1.2-0.6,2.4-2.3,3c-5.8,2.2-6.1,2.9-3.5,8.1
			c1.1,2.2,1,3.6-0.8,5.1c-1.7,1.3-3.4,1.3-4.8-0.3c-1.3-1.4-2.1-2.1-3.7-0.2c-1.4,1.7-2.8,3-0.6,5c0.2,0.2,0.5,0.5,0.7,0.7
			c1.8,2,1.7,4,0.1,6.2c-1.8,2.6-4.1,1.5-5.5,0.1c-3.1-2.9-4.5-1.3-6.5,1.3c-4.3,5.5-8.7,10.6-14.7,14.8
			c-7.6,5.3-13.2,13.1-18.2,21.1c-4.8,7.8-8.6,15.9-10.7,25c-2.9,12.6-1.2,24.4,6.1,34.7c5.2,7.1,13.5,10.9,22,13.4
			c4,1.2,8.1,2.2,12.2,2.9c5.5,0.9,10.7-0.7,15.5-2.9c6.4-2.9,13.1-5.6,18.6-11.3c-1.6,4.3-1.4,4.6-10.3,9.2
			c-6.8,3.5-13.5,8.2-21.7,7.2c-13.4-1.7-26.6-4.7-36.6-14.4c-5.6-5.5-8.4-13.4-9-20.9c-1-12.5,1.4-24.9,7.6-36.1
			c6.7-12.1,15.2-22.7,26.2-31.2c5.6-4.4,9.3-10.6,13.9-15.9c0.2-0.2,0.6-0.7,0.5-0.8c-4.4-6.6,0.7-12.2,2.7-17.5
			c2.7-7.2-0.2-12.1-3.3-17.4c-1.3-2.2-3.1-4.2-5-6c0.5,0.3,1.8,0,2.9,0.9c6.5,5.7,11.4,12.4,8.1,22.3c-1.2,3.5-2.4,7-3.7,10.4
			c-1.5,3.7,1.4,9.2,5.4,9.7c0.5,0.1,1.2-0.4,1.6-0.8c1.1-1-0.3-1.3-0.6-1.8c-3.9-5.4-3.7-5.3,1.4-10c3.5-3.2,0.1-7.3,0.4-10.9
			C155.8,154,154.7,151.5,154.1,149.1z"/>
		<path d="M226.7,271.7c-2.1,3.6-5.8,4.4-9.4,5.4c-5.6,1.6-11.3,0.9-16.9,0.5c6.4-0.6,12.7-1.5,19-2.6c2.8-0.5,4.3-3.6,7.4-3.2
			L226.7,271.7z"/>
		<path d="M178.9,277.9c5.5-5.7,7.5-13.9,13.8-19.1c0.6-0.5,1.2-1.1,2.2-1.5c-1.1,3.6-4.7,5.5-6.2,9.1c-1.5,3.8-4.6,6.9-7,10.3
			c-0.7,1-1.7,1.6-3,1C178.7,277.7,178.9,277.9,178.9,277.9z"/>
		<path d="M181.6,281c4.9-3,11-2.8,16-6.3c0.2,2.2-1.9,1.9-2.3,3.1c1.1,0.2,2.2,0.3,4.8,0.7C193.1,280.2,187.3,279.5,181.6,281z"/>
		<path d="M135.2,139.6c3.4,1.8,5.9,4.1,9.5,4.6C139,146.1,139,146.1,135.2,139.6z"/>
		<path d="M226.9,271.9c3-2.8,5.9-5.6,8.9-8.5c-2.5,3.3-4.1,7.5-9,8.3C226.7,271.7,226.9,271.9,226.9,271.9z"/>
		<path d="M89,273.8c-0.8,3.2,5,0.6,3.4,4.2c-0.4,1-1.6,1.3-2.6,0.9C87.5,277.9,87.7,276,89,273.8z"/>
		<path d="M85.8,265.9c0.6,2.2,3.8,1.7,3.8,3.9c0,1-1.8,1.6-2.9,1.1C84.4,269.8,84.8,268,85.8,265.9z"/>
		<path d="M153.2,303.1c2.3,0,4.3,0,6.9,0C157.5,304.6,155.8,308.1,153.2,303.1z"/>
		<path d="M100.8,289.3c-2.5,4.1-3.8,2.5-5.1-1.4C97.7,288.5,99.2,288.9,100.8,289.3z"/>
		<path d="M116.8,230.3c0.3,1.2,2.3-1,2.2,1.2c-0.1,1.8-1.3,1.4-2.3,1.5c-1.2,0.1-1.8-0.3-1.7-1.6
			C115.1,230,115.8,229.9,116.8,230.3z"/>
		<path d="M90,260.4c-1.3,0.9-1.5,3-3.7,2.3c0.6-1.2-3-2.4-0.1-3.7C86.8,261.1,88.6,259.8,90,260.4z"/>
		<path d="M95,94.1c0.6-3.5,0.6-3.5,5.5-5.4C98.4,91.2,95.7,91.7,95,94.1z"/>
		<path d="M86.5,251c1.2-0.1,1.7,0.7,2.2,1.3c-0.8,0.6-1.6,1.4-2.5,1.6c-1,0.2-2-0.7-1.8-1.6C84.6,251.5,85.5,250.6,86.5,251z"/>
		<path d="M164.9,102.4c0.2,1.3-0.4,1.6-1.3,1.6c-1.3,0.1-1.7-0.5-1.6-1.7c0.1-1.1,0.8-2.1,1.6-2
			C164.3,100.4,165.3,101.3,164.9,102.4z"/>
		<path d="M97.5,283c-3.1,3-4.5,2.2-5.8-0.3C93.8,281.4,95.1,283.6,97.5,283z"/>
		<path d="M147.9,201.2c-1.5,2.5-3.1,1.8-6,1.1C144.5,200.6,146.1,201,147.9,201.2z"/>
		<path d="M147.7,107.8c-0.8,0.9-0.6,2.7-2.6,2.2c-0.9-0.2-1-0.5-0.5-1.2c0.6-0.9,1.2-1.8,1.8-2.7
			C147,106.6,147.8,106.8,147.7,107.8z"/>
		<path d="M106,293.6c0,1.3-0.7,1.3-1.3,1.4c-1.3,0.1-2.1-0.7-2.6-1.7c-0.2-0.6,0.2-1.4,1-1.2C104.1,292.5,105.1,293.2,106,293.6z"
			/>
		<path d="M108.9,251.5c-0.4,0.3-1.3,1.2-1.5,1.1c-0.8-0.6-1.5-1.5-2.2-2.3c0.5-0.4,1-0.7,1.5-1.1
			C107.1,250.3,109.2,249.5,108.9,251.5z"/>
		<path d="M114,238.1c-0.3,1.2-1.8,0.7-2.3,1.6c-0.5-0.5-1.5-1-1.6-1.5c-0.2-1.6,1.2-1.1,2.1-1.2C113,237,113.9,236.9,114,238.1z"/>
		<path d="M111.3,243.8c-1.6,2.1-2.5,3.7-4.8,3.1c-0.3-0.1-0.3-0.8-0.5-1.2C107.6,245.1,109.2,244.5,111.3,243.8z"/>
		<path d="M146,301.6c0.1,1.5-0.9,1.5-1.9,1.4c-0.8-0.1-1.3-0.6-1-1.2c0.4-0.9,1-1.8,2.1-1.6C146.1,300.2,145.9,301,146,301.6z"/>
		<path d="M153,110.4c-2.7,3.2-3.5,0-4.7-1.4C149.8,109.5,151.2,109.9,153,110.4z"/>
		<path d="M128.1,220.5c-0.7,0.5-1.3,1.3-2,1.4c-1,0.2-1.8-0.6-1.8-1.6c0-0.5,1.2-1.2,1.8-1.2C126.7,219.2,127.4,220,128.1,220.5z"
			/>
		<path d="M132.8,215.3c-1,1.8-2.1,2.1-3.4,1.3c-0.2-0.1-0.3-1-0.2-1.2C130.3,214.6,131.5,215,132.8,215.3z"/>
		<path d="M121.5,296.9c0.5,0.8,1.3,1.4,1.4,2c0.2,1.2-0.9,1-1.7,1c-0.8,0-1.4-0.4-1.1-1.1C120.3,298.2,121,297.7,121.5,296.9z"/>
		<path d="M144,155.2c-0.4,0.9-0.9,1.7-2,1.8c-0.9,0.1-1.2-0.7-0.9-1.3c0.3-0.7,1-1.3,1.7-1.6C143.4,153.8,144,154.3,144,155.2z"/>
		<path d="M122.6,225.2c-0.3,1.8-1.5,2-2.9,1.7c-0.3-0.1-0.7-0.9-0.6-1.1C120,224.2,121.4,225.2,122.6,225.2z"/>
		<path d="M134,211.5c0.4-0.3,1-0.8,1.6-1.3c0.4,0.5,1.2,1.1,1.1,1.4c-0.2,0.5-0.9,1.1-1.4,1.2C134.5,213.1,134,212.7,134,211.5z"/>
		<path d="M109,238c-0.1,0.9-0.8,1-1.4,1c-0.9,0-1.7-0.2-1.4-1.3c0.1-0.3,1-0.6,1.6-0.7C108.4,237,109,237.2,109,238z"/>
		<path d="M142.8,160.7c-1.1,0.4-2.4,0.7-3.3,0c-0.6-0.4,0.3-1.1,0.8-1.4C141.8,158.4,142.2,159.7,142.8,160.7z"/>
		<path d="M130,301.1c-0.3,1.1-1.2,0.9-2,0.8c-0.8-0.1-1.2-0.8-0.8-1.3c0.2-0.4,1.1-0.5,1.7-0.6C129.5,300,130,300.4,130,301.1z"/>
		<path d="M145.5,89c1.1,0.1,2.2,0.2,3.2,0.3c-0.2,0.4-0.4,0.9-0.7,1.2C146.7,91.6,146.6,88.8,145.5,89z"/>
		<path d="M142.1,207.6c-0.9,0.2-1.4,0.3-1.9,0.3c-0.7,0-1.2-0.3-1.1-1.1c0.1-0.8,0.7-1.1,1.3-0.7
			C140.9,206.4,141.3,206.9,142.1,207.6z"/>
		<path d="M156.9,190.9c0,0.7-0.4,1.1-1.1,1c-0.5-0.1-1-0.3-1.5-0.5c0.4-0.4,0.8-1,1.3-1.3C156.2,189.8,156.9,190,156.9,190.9z"/>
		<path d="M150.2,196c0.2,0.2,0.6,0.5,0.7,0.8c0.1,1.1-0.7,1.2-1.5,1.1c-0.4,0-0.7-0.3-1.1-0.5C148.7,196.8,149.1,196.1,150.2,196z"
			/>
		<path d="M132.6,170.4c1.4-0.3,2.9-0.7,5.1-1.2c-1.9,2.4-3.4,2-5,1.1C132.7,170.3,132.6,170.4,132.6,170.4z"/>
		<path d="M160,185.9c-0.2,1.3-1.1,1.1-1.8,1.1c-0.3,0-1.1,0.1-0.7-0.7c0.3-0.7,0.9-1.4,1.8-1.2C159.6,185.2,159.8,185.7,160,185.9z
			"/>
		<path d="M140.1,165.3c-0.7,0.7-1.1,1.2-1.6,1.5c-0.6,0.4-1.3,0.1-1.4-0.6c-0.1-0.7,0.2-1.2,1-1.2
			C138.6,165.1,139.2,165.2,140.1,165.3z"/>
		<path d="M116,297.1c-0.2,0.2-0.5,0.7-0.8,0.8c-0.9,0.2-1.5-0.5-1.8-1.2c-0.3-0.7,0.5-0.6,0.8-0.6C114.9,296,115.8,295.8,116,297.1
			z"/>
		<path d="M163,296.9c-0.2,1.3-1.1,1.1-1.8,1.1c-0.3,0-1.1,0.1-0.7-0.7c0.3-0.7,0.9-1.4,1.8-1.2C162.6,296.2,162.8,296.7,163,296.9z
			"/>
		<path d="M97.3,95.1c-0.5-2.3,0.9-2.6,2-3.3C99.8,93.7,98.3,94,97.3,95.1z"/>
		<path d="M152,299c1.6,0,2,0.3,1.9,1.1c-0.1,0.8-0.8,0.9-1.4,0.8c-0.4-0.1-1.4,0.4-1.1-0.7C151.6,299.6,152,299.1,152,299z"/>
		<path d="M152.8,93c-1.1,0-1.9,0-1.7-1.1c0-0.3,0.6-0.7,0.9-0.8c0.9,0,1.4,0.7,1.7,1.4C153.7,92.6,153,92.9,152.8,93z"/>
		<path d="M135.7,303c-0.2-0.2-0.6-0.6-0.6-0.9c0-1.2,0.9-1,1.7-1c0.3,0,0.9,0.5,0.9,0.6C137.3,302.3,136.8,302.9,135.7,303z"/>
		<path d="M132,174.7c0,1.1-0.6,1.3-1.2,1.2c-0.5,0-1.4,0.3-1.3-0.6c0.1-0.7,0.8-1.4,1.7-1.3C131.5,174.1,131.7,174.6,132,174.7z"/>
		<path d="M128,305c0,1.6-0.3,2-1.1,1.9c-0.8-0.1-0.9-0.8-0.8-1.4c0.1-0.4-0.4-1.4,0.7-1.1C127.4,304.6,127.9,305,128,305z"/>
		<path d="M172.7,181.7c0.3,4.1-2.6,7.4-0.8,11c0.1,0.2-0.3,1.1-0.6,1.1c-1.1,0.2-2-0.6-2.1-1.5C168.7,188.5,169.5,185,172.7,181.7z
			"/>
		<path d="M135.8,227c-0.6-2.7,0.6-4.8,2.5-8.2C138.3,222.7,137.2,224.9,135.8,227z"/>
		<path d="M190.6,112.9c-1.2-4.9-2.3-8.3-6.7-10.7C189.8,103.6,191.2,105.8,190.6,112.9z"/>
		<path d="M154.2,79.2c-1.2,0.6-2.4,1.3-4,2.2c0.9-2.9,2.5-2.5,4.2-2C154.4,79.4,154.2,79.2,154.2,79.2z"/>
	</g>
</g>
</svg>
